
68 debug 1474386170 1474386170 1000 1000 - - 0 job_1 1 1 1 dummy1 (null)
68 debug 1474386170 1474386170 1000 1000 - - 0 job_1 1 1 1 dummy1 (null)
68 debug 1474386170 1474386170 1000 1000 - - 0 job_1 1 1 1 dummy1 (null)
68 debug 1474386170 1474386173 1000 1000 - - 3 3 3 4294967295 0
69 debug 1474386173 1474386174 1000 1000 - - 0 job_2 1 1 1 dummy1 (null)
69 debug 1474386173 1474386174 1000 1000 - - 0 job_2 1 1 1 dummy1 (null)
69 debug 1474386173 1474386174 1000 1000 - - 0 job_2 1 1 1 dummy1 (null)
69 debug 1474386173 1474386175 1000 1000 - - 3 1 3 4294967295 0
70 debug 1474386174 1474386175 1000 1000 - - 0 job_3 1 1 1 dummy1 (null)
70 debug 1474386174 1474386175 1000 1000 - - 0 job_3 1 1 1 dummy1 (null)
70 debug 1474386174 1474386175 1000 1000 - - 0 job_3 1 1 1 dummy1 (null)
70 debug 1474386174 1474386176 1000 1000 - - 3 1 3 4294967295 0
71 debug 1474386177 1474386180 1000 1000 - - 0 job_4 1 1 1 dummy1 (null)
71 debug 1474386177 1474386180 1000 1000 - - 0 job_4 1 1 1 dummy1 (null)
71 debug 1474386177 1474386180 1000 1000 - - 0 job_4 1 1 1 dummy1 (null)
71 debug 1474386177 1474386181 1000 1000 - - 3 1 3 4294967295 0
